…
We can see behaviour of trimmed mean (dotted line) across the years, as we can see at the graph, the spread of life expectancy decreased by the process of trimmed. Moreover we can distingish two different characteristics on data before and after year 1982. This is, before 1982, the trimmed life expectancy mean was bigger than median, in 1982 mean and median were equivalent, and after 1982 trimmed mean was smaller than median.

-   How is life expectancy changing over time on different continents?

By following table we can appreciate some summary statistics about life expectancy by continent and year, such as the maximum, minimum and mean.

``` r
gapminder %>% 
  group_by(continent,year) %>% 
  summarise( Min = min(lifeExp),
             Mean = mean(lifeExp),
             Max = max(lifeExp))
```

    ## # A tibble: 60 x 5
    ## # Groups:   continent [?]
    ##    continent  year   Min  Mean   Max
    ##    <fct>     <int> <dbl> <dbl> <dbl>
    ##  1 Africa     1952  30.0  39.1  52.7
    ##  2 Africa     1957  31.6  41.3  58.1
    ##  3 Africa     1962  32.8  43.3  60.2
    ##  4 Africa     1967  34.1  45.3  61.6
    ##  5 Africa     1972  35.4  47.5  64.3
    ##  6 Africa     1977  36.8  49.6  67.1
    ##  7 Africa     1982  38.4  51.6  69.9
    ##  8 Africa     1987  39.9  53.3  71.9
    ##  9 Africa     1992  23.6  53.6  73.6
    ## 10 Africa     1997  36.1  53.6  74.8
    ## # ... with 50 more rows
…
